data quality assessment
…
table(CustomerDemographic$gender)

   F    M    U 
2039 1873   87 

# subset this "U" group in case there's meaning analysis
Customer_U_gender <- subset(CustomerDemographic, gender == "U")

first_name and last_name

# 125 counts of customers whose last names are not provided or they don't have one
CustomerDemographic |> filter(is.na(last_name))

# A tibble: 125 × 13
   customer_id first_name last_name gender past_3_years_bike_relate…¹ DOB       
   <chr>       <chr>      <chr>     <chr>                       <dbl> <date>    
 1 3173        Angelo     <NA>      M                              55 2001-10-10
 2 2989        Mort       <NA>      M                              37 2000-10-25
 3 2398        Mirelle    <NA>      F                               6 2000-10-11
 4 3651        Baxie      <NA>      M                              91 1999-11-15
 5 3188        Boyd       <NA>      M                              94 1999-07-07
 6 3095        Joachim    <NA>      M                              14 1998-10-11
 7 2615        Cordelia   <NA>      F                              23 1998-08-13
 8 2101        Maryann    <NA>      F                              71 1998-03-08
 9 2189        Thedric    <NA>      M                              43 1998-02-25
10 2835        Deloria    <NA>      F                              30 1997-07-01
# ℹ 115 more rows
# ℹ abbreviated name: ¹​past_3_years_bike_related_purchases
# ℹ 7 more variables: job_title <chr>, job_industry_category <chr>,
#   wealth_segment <chr>, deceased_indicator <chr>, default <chr>,
#   owns_car <chr>, tenure <dbl>
…
Transactions

# A tibble: 20,000 × 13
   transaction_id product_id customer_id transaction_date    online_order
            <dbl>      <dbl>       <dbl> <dttm>              <lgl>       
 1              1          2        2950 2017-02-25 00:00:00 FALSE       
 2              2          3        3120 2017-05-21 00:00:00 TRUE        
 3              3         37         402 2017-10-16 00:00:00 FALSE       
 4              4         88        3135 2017-08-31 00:00:00 FALSE       
 5              5         78         787 2017-10-01 00:00:00 TRUE        
 6              6         25        2339 2017-03-08 00:00:00 TRUE        
 7              7         22        1542 2017-04-21 00:00:00 TRUE        
 8              8         15        2459 2017-07-15 00:00:00 FALSE       
 9              9         67        1305 2017-08-10 00:00:00 FALSE       
10             10         12        3262 2017-08-30 00:00:00 TRUE        
# ℹ 19,990 more rows
# ℹ 8 more variables: order_status <chr>, brand <chr>, product_line <chr>,
#   product_class <chr>, product_size <chr>, list_price <dbl>,
#   standard_cost <dbl>, product_first_sold_date <dttm>
…
brand, product_size, product_size, product_line, product_class, standard_cost are missing with the same amount of values. Potentially, 197 transaction observations are missing this product info.

We will remove these transactions from training and subset it for further analysis.

Tx_missing_product_info <- Transactions |> 
  filter(
    is.na(brand) & is.na(product_size) & is.na(product_line) &
    is.na(product_class) & is.na(standard_cost)
  )

Tx_missing_product_info

# A tibble: 197 × 13
   transaction_id product_id customer_id transaction_date online_order
   <chr>          <chr>      <chr>       <date>           <lgl>       
 1 137            0          431         2017-09-23       FALSE       
 2 160            0          3300        2017-08-27       FALSE       
 3 367            0          1614        2017-03-10       FALSE       
 4 407            0          2559        2017-06-14       TRUE        
 5 677            0          2609        2017-07-02       FALSE       
 6 781            0          897         2017-05-10       TRUE        
 7 1004           0          2254        2017-05-16       FALSE       
 8 1131           0          2163        2017-03-09       FALSE       
 9 1197           0          2234        2017-04-04       FALSE       
10 1283           0          397         2017-08-09       FALSE       
# ℹ 187 more rows
# ℹ 8 more variables: order_status <chr>, brand <chr>, product_line <chr>,
#   product_class <chr>, product_size <chr>, list_price <dbl>,
#   standard_cost <dbl>, product_first_sold_date <date>
…
[1] 3491

length(unique(CustomerDemographic$customer_id))

[1] 3997

within the past year, 506 customers did not make a transaction.

# identify these customers by id and subset
Customer_0tx_past_yr <- CustomerDemographic %>%
  anti_join(Transactions, by = "customer_id")

Customer_0tx_past_yr

# A tibble: 506 × 11
   customer_id first_name  last_name   gender past_3_years_bike_rel…¹ DOB       
   <chr>       <chr>       <chr>       <chr>                    <dbl> <date>    
 1 3949        Costa       Sleightholm M                           24 2001-12-19
 2 3997        Blanch      Nisuis      F                           87 2001-07-13
 3 3607        Troy        Blaydes     M                           99 2001-05-22
 4 3749        Blondelle   Swynley     F                            3 2001-04-21
 5 3616        Vale        Dagnan      M                           42 2001-04-02
 6 852         Andie       Bonney      F                           37 2000-11-04
 7 3960        Hobart      Burgan      M                            6 2000-03-16
 8 3954        Archaimbaud McAteer     M                           63 2000-02-03
 9 3850        Alexandro   McCullock   M                           55 2000-01-07
10 3675        Samuele     Heller      M                           88 1999-12-17
# ℹ 496 more rows
# ℹ abbreviated name: ¹​past_3_years_bike_related_purchases
# ℹ 5 more variables: job_title <chr>, job_industry_category <chr>,
#   wealth_segment <chr>, owns_car <chr>, tenure <dbl>
…
Export cleansed csv files

final look at the four data sets before export.

Transactions

# A tibble: 19,980 × 13
   transaction_id product_id customer_id transaction_date online_order
   <chr>          <chr>      <chr>       <date>           <lgl>       
 1 1              2          2950        2017-02-25       FALSE       
 2 2              3          3120        2017-05-21       TRUE        
 3 3              37         402         2017-10-16       FALSE       
 4 4              88         3135        2017-08-31       FALSE       
 5 5              78         787         2017-10-01       TRUE        
 6 6              25         2339        2017-03-08       TRUE        
 7 7              22         1542        2017-04-21       TRUE        
 8 8              15         2459        2017-07-15       FALSE       
 9 9              67         1305        2017-08-10       FALSE       
10 10             12         3262        2017-08-30       TRUE        
# ℹ 19,970 more rows
# ℹ 8 more variables: order_status <chr>, brand <chr>, product_line <chr>,
#   product_class <chr>, product_size <chr>, list_price <dbl>,
#   standard_cost <dbl>, product_first_sold_date <date>
…
CustomerDemographic

# A tibble: 3,997 × 11
   customer_id first_name last_name   gender past_3_years_bike_rela…¹ DOB       
   <chr>       <chr>      <chr>       <chr>                     <dbl> <date>    
 1 66          Anselm     Gawne       M                            46 2002-03-11
 2 1888        Sibyl      Scholtz     F                            67 2002-01-26
 3 3435        Stevena    Allcock     F                            80 2002-01-15
 4 2858        Benedicto  Radki       M                             4 2002-01-09
 5 422         Vito       Norker      M                            78 2002-01-06
 6 2296        Nathalia   Sanger      F                            16 2002-01-01
 7 470         Darbee     Klimowicz   M                            22 2001-12-19
 8 3949        Costa      Sleightholm M                            24 2001-12-19
 9 1402        Hillier    Andraud     M                            58 2001-12-08
10 1519        Marwin     Jeyness     M                            35 2001-11-30
# ℹ 3,987 more rows
# ℹ abbreviated name: ¹​past_3_years_bike_related_purchases
# ℹ 5 more variables: job_title <chr>, job_industry_category <chr>,
#   wealth_segment <chr>, owns_car <chr>, tenure <dbl>
…
CustomerAddress

# A tibble: 3,993 × 6
   customer_id address                 postcode state country property_valuation
   <chr>       <chr>                   <chr>    <chr> <chr>                <dbl>
 1 1           060 Morning Avenue      2016     NSW   Austra…                 10
 2 2           6 Meadow Vale Court     2153     NSW   Austra…                 10
 3 4           0 Holy Cross Court      4211     QLD   Austra…                  9
 4 5           17979 Del Mar Point     2448     NSW   Austra…                  4
 5 6           9 Oakridge Court        3216     VIC   Austra…                  9
 6 7           4 Delaware Trail        2210     NSW   Austra…                  9
 7 8           49 Londonderry Lane     2650     NSW   Austra…                  4
 8 9           97736 7th Trail         2023     NSW   Austra…                 12
 9 11          93405 Ludington Park    3044     VIC   Austra…                  8
10 12          44339 Golden Leaf Alley 4557     QLD   Austra…                  4
# ℹ 3,983 more rows

str(CustomerAddress)

tibble [3,993 × 6] (S3: tbl_df/tbl/data.frame)
 $ customer_id       : chr [1:3993] "1" "2" "4" "5" ...
 $ address           : chr [1:3993] "060 Morning Avenue" "6 Meadow Vale Court" "0 Holy Cross Court" "17979 Del Mar Point" ...
 $ postcode          : chr [1:3993] "2016" "2153" "4211" "2448" ...
 $ state             : chr [1:3993] "NSW" "NSW" "QLD" "NSW" ...
 $ country           : chr [1:3993] "Australia" "Australia" "Australia" "Australia" ...
 $ property_valuation: num [1:3993] 10 10 9 4 9 9 4 12 8 4 ...

NewCustomerList

# A tibble: 1,000 × 15
   first_name last_name gender past_3_years_bike_related_…¹ DOB        job_title
   <chr>      <chr>     <chr>                         <dbl> <date>     <chr>    
 1 Chickie    Brister   M                                86 1957-07-12 General …
 2 Morly      Genery    M                                69 1970-03-22 Structur…
 3 Lucine     Stutt     F                                64 1979-01-28 Account …
 4 Melinda    Hadlee    F                                34 1965-09-21 Financia…
 5 Druci      Brandli   F                                39 1951-04-29 Assistan…
 6 Rutledge   Hallt     M                                23 1976-10-06 Compensa…
 7 Nancie     Vian      F                                74 1972-12-27 Human Re…
 8 Duff       Karlowicz M                                50 1972-04-28 Speech P…
 9 Barthel    Docket    M                                72 1985-08-02 Accounti…
10 Rockwell   Matson    M                                94 1995-01-01 Programm…
# ℹ 990 more rows
# ℹ abbreviated name: ¹​past_3_years_bike_related_purchases
# ℹ 9 more variables: job_industry_category <chr>, wealth_segment <chr>,
#   owns_car <chr>, tenure <dbl>, address <chr>, postcode <chr>, state <chr>,
#   country <chr>, property_valuation <dbl>
…
