EDA
…
https://gender-api.com/

genderize.io

# one limitation of using gender package instead of genderize is
# the ability to specify country = 'AU'

# The "genderize" method uses the Genderize.io <https://genderize.io/> API, 
# which is based on "user profiles across major social networks."
imputedUCustomers <- gender(Customer_U_gender$first_name, 
                            method = "genderize")
imputedUCustomers

# A tibble: 87 × 4
   name      gender proportion_male proportion_female
   <chr>     <chr>            <dbl>             <dbl>
 1 Jory      male            0.6               0.4   
 2 Reggie    male            0.94              0.0600
 3 Edgar     male            1                 0     
 4 Giorgio   male            1                 0     
 5 Marlow    male            0.94              0.0600
 6 Cornelius male            1                 0     
 7 Eugenie   female          0.0100            0.99  
 8 Darelle   female          0.26              0.74  
 9 Kienan    male            0.99              0.0100
10 Ardelle   female          0                 1     
# ℹ 77 more rows
…
standardize gender column values

imputedUCustomers <- imputedUCustomers |>
  mutate(gender = ifelse(gender == "male", "M", "F"))

imputedUCustomers

# A tibble: 87 × 4
   name      gender proportion_male proportion_female
   <chr>     <chr>            <dbl>             <dbl>
 1 Jory      M               0.6               0.4   
 2 Reggie    M               0.94              0.0600
 3 Edgar     M               1                 0     
 4 Giorgio   M               1                 0     
 5 Marlow    M               0.94              0.0600
 6 Cornelius M               1                 0     
 7 Eugenie   F               0.0100            0.99  
 8 Darelle   F               0.26              0.74  
 9 Kienan    M               0.99              0.0100
10 Ardelle   F               0                 1     
# ℹ 77 more rows
…
